<?xml version="1.0" encoding="utf-8"?>
<!-- Generator: Adobe Illustrator 25.1.0, SVG Export Plug-In . SVG Version: 6.00 Build 0)  -->
<svg version="1.1" id="Слой_1" xmlns="http://www.w3.org/2000/svg" xmlns:xlink="http://www.w3.org/1999/xlink" x="0px" y="0px"
	 viewBox="0 0 384 240" style="enable-background:new 0 0 384 240;" xml:space="preserve">
<style type="text/css">
	.st0{fill:#D5D6DF;}
</style>
<path class="st0" d="M257.1,0H64v80H0v128h58.8c6.6,18.6,24.3,32,45.2,32s38.6-13.4,45.2-32h85.6c6.6,18.6,24.3,32,45.2,32
	s38.6-13.4,45.2-32H384v-99.5l-77.3-25.8L257.1,0z M192,32h46.9l28.8,48H192V32z M96,32h64v48H96V32z M104,208c-8.8,0-16-7.2-16-16
	s7.2-16,16-16s16,7.2,16,16S112.8,208,104,208z M280,208c-8.8,0-16-7.2-16-16s7.2-16,16-16s16,7.2,16,16S288.8,208,280,208z
	 M352,176h-26.8c-6.6-18.6-24.3-32-45.2-32s-38.6,13.4-45.2,32h-85.6c-6.6-18.6-24.3-32-45.2-32s-38.6,13.4-45.2,32H32v-64h128v32
	h32v-32h101.4l58.6,19.5V176z"/>
</svg>
